<svg id="icon-header-bottom" viewBox="0 0 38 38" fill="none" xmlns="http://www.w3.org/2000/svg">
    <path d="M1.46165 19C1.46165 28.6862 9.31389 36.5385 19.0001 36.5385C28.6863 36.5385 36.5386 28.6862 36.5386 19C36.5386 9.31378 28.6863 1.46155 19.0001 1.46155C9.31389 1.46155 1.46165 9.31378 1.46165 19Z" stroke="black" stroke-width="1.46154" stroke-miterlimit="10"/>
    <path d="M12.8063 20.1144L18.9996 26.3076L25.1929 20.1144" stroke="black" stroke-width="1.46154" stroke-linecap="round" stroke-linejoin="round"/>
    <path d="M19 11.6923L19 26.3076" stroke="black" stroke-width="1.46154" stroke-linecap="round" stroke-linejoin="round"/>
</svg>
