{
    "compilerOptions": {
        "target": "es2017",
        "allowSyntheticDefaultImports": false,
        "baseUrl": "./",
        "paths": {
            "@/*": ["src/*"],
        }
    },
    "exclude": ["node_modules", "dist", "docs"]
}
