<svg id="icon-copy-code-validated" viewBox="0 0 20 20" fill="none" xmlns="http://www.w3.org/2000/svg">
    <rect class="icon-rec-v" x="2" y="4" width="14" height="14" rx="1" fill="#464650" stroke="transparent" stroke-width="1" stroke-linecap="round" stroke-linejoin="round"/>
    <path class="icon-rec" d="M4 2H17C17.5523 2 18 2.44772 18 3V16" stroke="#464650" stroke-width="1" stroke-linecap="round" stroke-linejoin="round"/>
    <path class="icon-souche" d="M6 11.6L8.1 14L12 8" stroke="white" stroke-linecap="round"/>
</svg>
